{
	"cart": {
		"name": "cart",
		"type": "Itemorder",
		"isList": false,
		"owner": "Page",
		"dataSet": {
			"dataValue": ""
		},
		"dataBinding": {
			"id": "",
			"product_id": "",
			"status": "In Cart",
			"user.id": "bind:Variables.currentUser.dataSet.id",
			"quantity": ""
		},
		"saveInPhonegap": false,
		"operation": "read",
		"liveSource": "eshopping",
		"firstRow": 0,
		"maxResults": 20,
		"designMaxResults": 10,
		"ignoreCase": false,
		"matchMode": "exact",
		"autoUpdate": true,
		"startUpdate": false,
		"onBeforeUpdate": "Javascript",
		"filterFields": {
		},
		"category": "wm.LiveVariable",
		"_id": "wm-wm.LiveVariable1399288986799",
		"package": "com.eshopping.data.Itemorder",
		"properties": ["product", "user"],
		"relatedTables": [{
			"type": "Product",
			"package": "com.eshopping.data.Product"
		}, {
			"type": "User",
			"package": "com.eshopping.data.User"
		}],
		"propertiesMap": {
			"columns": [{
				"type": "Product",
				"fullyQualifiedType": "com.eshopping.data.Product",
				"relatedTableColumnName": "PRODUCT_ID",
				"isRelated": true,
				"relatedTableName": "PRODUCT",
				"columns": [{
					"type": "string",
					"fullyQualifiedType": "string",
					"isPrimaryKey": false,
					"notNull": "true",
					"length": "null",
					"precision": "null",
					"generator": null,
					"isRelated": false,
					"fieldName": "imgUrl",
					"columnName": "IMG_URL"
				}, {
					"type": "integer",
					"fullyQualifiedType": "integer",
					"isPrimaryKey": true,
					"notNull": "true",
					"length": "null",
					"precision": "null",
					"generator": "identity",
					"isRelated": false,
					"fieldName": "id",
					"columnName": "ID"
				}, {
					"type": "string",
					"fullyQualifiedType": "string",
					"isPrimaryKey": false,
					"notNull": "true",
					"length": "null",
					"precision": "null",
					"generator": null,
					"isRelated": false,
					"fieldName": "category",
					"columnName": "CATEGORY"
				}, {
					"type": "double",
					"fullyQualifiedType": "double",
					"isPrimaryKey": false,
					"notNull": "true",
					"length": "null",
					"precision": "null",
					"generator": null,
					"isRelated": false,
					"fieldName": "price",
					"columnName": "PRICE"
				}, {
					"type": "string",
					"fullyQualifiedType": "string",
					"isPrimaryKey": false,
					"notNull": "true",
					"length": "null",
					"precision": "null",
					"generator": null,
					"isRelated": false,
					"fieldName": "description",
					"columnName": "DESCRIPTION"
				}, {
					"type": "string",
					"fullyQualifiedType": "string",
					"isPrimaryKey": false,
					"notNull": "true",
					"length": "null",
					"precision": "null",
					"generator": null,
					"isRelated": false,
					"fieldName": "name",
					"columnName": "NAME"
				}, {
					"type": "boolean",
					"fullyQualifiedType": "boolean",
					"isPrimaryKey": false,
					"notNull": "true",
					"length": "null",
					"precision": "null",
					"generator": null,
					"isRelated": false,
					"fieldName": "availability",
					"columnName": "AVAILABILITY"
				}],
				"isList": false,
				"fieldName": "product",
				"columnName": "product"
			}, {
				"type": "integer",
				"fullyQualifiedType": "integer",
				"isPrimaryKey": true,
				"notNull": "true",
				"length": "null",
				"precision": "null",
				"generator": "identity",
				"isRelated": false,
				"fieldName": "id",
				"columnName": "ID"
			}, {
				"type": "string",
				"fullyQualifiedType": "string",
				"isPrimaryKey": false,
				"notNull": "true",
				"length": "null",
				"precision": "null",
				"generator": null,
				"isRelated": false,
				"fieldName": "status",
				"columnName": "STATUS"
			}, {
				"type": "integer",
				"fullyQualifiedType": "integer",
				"isPrimaryKey": false,
				"notNull": "true",
				"length": "null",
				"precision": "null",
				"generator": null,
				"isRelated": false,
				"fieldName": "quantity",
				"columnName": "QUANTITY"
			}, {
				"type": "User",
				"fullyQualifiedType": "com.eshopping.data.User",
				"relatedTableColumnName": "USER_ID",
				"isRelated": true,
				"relatedTableName": "USER",
				"columns": [{
					"type": "integer",
					"fullyQualifiedType": "integer",
					"isPrimaryKey": false,
					"notNull": "true",
					"length": "null",
					"precision": "null",
					"generator": null,
					"isRelated": false,
					"fieldName": "phone",
					"columnName": "PHONE"
				}, {
					"type": "string",
					"fullyQualifiedType": "string",
					"isPrimaryKey": false,
					"notNull": "true",
					"length": "null",
					"precision": "null",
					"generator": null,
					"isRelated": false,
					"fieldName": "street",
					"columnName": "STREET"
				}, {
					"type": "string",
					"fullyQualifiedType": "string",
					"isPrimaryKey": false,
					"notNull": "true",
					"length": "null",
					"precision": "null",
					"generator": null,
					"isRelated": false,
					"fieldName": "password",
					"columnName": "PASSWORD"
				}, {
					"type": "string",
					"fullyQualifiedType": "string",
					"isPrimaryKey": false,
					"notNull": "true",
					"length": "null",
					"precision": "null",
					"generator": null,
					"isRelated": false,
					"fieldName": "productBought",
					"columnName": "PRODUCT_BOUGHT"
				}, {
					"type": "string",
					"fullyQualifiedType": "string",
					"isPrimaryKey": false,
					"notNull": "true",
					"length": "null",
					"precision": "null",
					"generator": null,
					"isRelated": false,
					"fieldName": "city",
					"columnName": "CITY"
				}, {
					"type": "string",
					"fullyQualifiedType": "string",
					"isPrimaryKey": false,
					"notNull": "true",
					"length": "null",
					"precision": "null",
					"generator": null,
					"isRelated": false,
					"fieldName": "country",
					"columnName": "COUNTRY"
				}, {
					"type": "integer",
					"fullyQualifiedType": "integer",
					"isPrimaryKey": true,
					"notNull": "true",
					"length": "null",
					"precision": "null",
					"generator": "identity",
					"isRelated": false,
					"fieldName": "id",
					"columnName": "ID"
				}, {
					"type": "string",
					"fullyQualifiedType": "string",
					"isPrimaryKey": false,
					"notNull": "true",
					"length": "null",
					"precision": "null",
					"generator": null,
					"isRelated": false,
					"fieldName": "landmark",
					"columnName": "LANDMARK"
				}, {
					"type": "string",
					"fullyQualifiedType": "string",
					"isPrimaryKey": false,
					"notNull": "true",
					"length": "null",
					"precision": "null",
					"generator": null,
					"isRelated": false,
					"fieldName": "email",
					"columnName": "EMAIL"
				}, {
					"type": "string",
					"fullyQualifiedType": "string",
					"isPrimaryKey": false,
					"notNull": "true",
					"length": "null",
					"precision": "null",
					"generator": null,
					"isRelated": false,
					"fieldName": "pin",
					"columnName": "PIN"
				}, {
					"type": "string",
					"fullyQualifiedType": "string",
					"isPrimaryKey": false,
					"notNull": "true",
					"length": "null",
					"precision": "null",
					"generator": null,
					"isRelated": false,
					"fieldName": "name",
					"columnName": "NAME"
				}],
				"isList": false,
				"fieldName": "user",
				"columnName": "user"
			}],
			"entityName": "Itemorder",
			"fullyQualifiedName": "com.eshopping.data.Itemorder"
		},
		"tableName": "ITEMORDER"
	},
	"ordersInsert": {
		"name": "ordersInsert",
		"type": "Productorder",
		"isList": false,
		"owner": "Page",
		"dataSet": {
			"dataValue": ""
		},
		"dataBinding": {
			"id": "",
			"status": "",
			"user_id": ""
		},
		"saveInPhonegap": false,
		"operation": "insert",
		"liveSource": "eshopping",
		"firstRow": 0,
		"maxResults": 20,
		"designMaxResults": 10,
		"ignoreCase": false,
		"matchMode": "start",
		"autoUpdate": false,
		"startUpdate": false,
		"filterFields": {
		},
		"inputFields": {
		},
		"category": "wm.LiveVariable",
		"_id": "wm-wm.LiveVariable1399288986592",
		"package": "com.eshopping.data.Productorder",
		"properties": ["user"],
		"relatedTables": [{
			"type": "User",
			"package": "com.eshopping.data.User"
		}],
		"propertiesMap": {
			"columns": [{
				"type": "integer",
				"fullyQualifiedType": "integer",
				"isPrimaryKey": true,
				"notNull": "true",
				"length": "null",
				"precision": "null",
				"generator": "identity",
				"isRelated": false,
				"fieldName": "id",
				"columnName": "ID"
			}, {
				"type": "string",
				"fullyQualifiedType": "string",
				"isPrimaryKey": false,
				"notNull": "true",
				"length": "null",
				"precision": "null",
				"generator": null,
				"isRelated": false,
				"fieldName": "status",
				"columnName": "STATUS"
			}, {
				"type": "User",
				"fullyQualifiedType": "com.eshopping.data.User",
				"relatedTableColumnName": "USER_ID",
				"isRelated": true,
				"relatedTableName": "USER",
				"columns": [{
					"type": "integer",
					"fullyQualifiedType": "integer",
					"isPrimaryKey": false,
					"notNull": "true",
					"length": "null",
					"precision": "null",
					"generator": null,
					"isRelated": false,
					"fieldName": "phone",
					"columnName": "PHONE"
				}, {
					"type": "string",
					"fullyQualifiedType": "string",
					"isPrimaryKey": false,
					"notNull": "true",
					"length": "null",
					"precision": "null",
					"generator": null,
					"isRelated": false,
					"fieldName": "street",
					"columnName": "STREET"
				}, {
					"type": "string",
					"fullyQualifiedType": "string",
					"isPrimaryKey": false,
					"notNull": "true",
					"length": "null",
					"precision": "null",
					"generator": null,
					"isRelated": false,
					"fieldName": "password",
					"columnName": "PASSWORD"
				}, {
					"type": "string",
					"fullyQualifiedType": "string",
					"isPrimaryKey": false,
					"notNull": "true",
					"length": "null",
					"precision": "null",
					"generator": null,
					"isRelated": false,
					"fieldName": "productBought",
					"columnName": "PRODUCT_BOUGHT"
				}, {
					"type": "string",
					"fullyQualifiedType": "string",
					"isPrimaryKey": false,
					"notNull": "true",
					"length": "null",
					"precision": "null",
					"generator": null,
					"isRelated": false,
					"fieldName": "city",
					"columnName": "CITY"
				}, {
					"type": "string",
					"fullyQualifiedType": "string",
					"isPrimaryKey": false,
					"notNull": "true",
					"length": "null",
					"precision": "null",
					"generator": null,
					"isRelated": false,
					"fieldName": "country",
					"columnName": "COUNTRY"
				}, {
					"type": "integer",
					"fullyQualifiedType": "integer",
					"isPrimaryKey": true,
					"notNull": "true",
					"length": "null",
					"precision": "null",
					"generator": "identity",
					"isRelated": false,
					"fieldName": "id",
					"columnName": "ID"
				}, {
					"type": "string",
					"fullyQualifiedType": "string",
					"isPrimaryKey": false,
					"notNull": "true",
					"length": "null",
					"precision": "null",
					"generator": null,
					"isRelated": false,
					"fieldName": "landmark",
					"columnName": "LANDMARK"
				}, {
					"type": "string",
					"fullyQualifiedType": "string",
					"isPrimaryKey": false,
					"notNull": "true",
					"length": "null",
					"precision": "null",
					"generator": null,
					"isRelated": false,
					"fieldName": "email",
					"columnName": "EMAIL"
				}, {
					"type": "string",
					"fullyQualifiedType": "string",
					"isPrimaryKey": false,
					"notNull": "true",
					"length": "null",
					"precision": "null",
					"generator": null,
					"isRelated": false,
					"fieldName": "pin",
					"columnName": "PIN"
				}, {
					"type": "string",
					"fullyQualifiedType": "string",
					"isPrimaryKey": false,
					"notNull": "true",
					"length": "null",
					"precision": "null",
					"generator": null,
					"isRelated": false,
					"fieldName": "name",
					"columnName": "NAME"
				}],
				"isList": false,
				"fieldName": "user",
				"columnName": "user"
			}],
			"entityName": "Productorder",
			"fullyQualifiedName": "com.eshopping.data.Productorder"
		},
		"tableName": "PRODUCTORDER"
	},
	"orderDetailsInsert": {
		"name": "orderDetailsInsert",
		"type": "Orderdetail",
		"isList": false,
		"owner": "Page",
		"dataSet": {
			"dataValue": ""
		},
		"dataBinding": {
			"id": "",
			"order_id": "",
			"product_id": "",
			"quantity": ""
		},
		"saveInPhonegap": false,
		"operation": "insert",
		"liveSource": "eshopping",
		"firstRow": 0,
		"maxResults": 20,
		"designMaxResults": 10,
		"ignoreCase": false,
		"matchMode": "start",
		"autoUpdate": false,
		"startUpdate": false,
		"filterFields": {
		},
		"inputFields": {
		},
		"category": "wm.LiveVariable",
		"_id": "wm-wm.LiveVariable1399288986726",
		"package": "com.eshopping.data.Orderdetail",
		"properties": ["product", "productorder"],
		"relatedTables": [{
			"type": "Product",
			"package": "com.eshopping.data.Product"
		}, {
			"type": "Productorder",
			"package": "com.eshopping.data.Productorder"
		}],
		"propertiesMap": {
			"columns": [{
				"type": "Product",
				"fullyQualifiedType": "com.eshopping.data.Product",
				"relatedTableColumnName": "PRODUCT_ID",
				"isRelated": true,
				"relatedTableName": "PRODUCT",
				"columns": [{
					"type": "string",
					"fullyQualifiedType": "string",
					"isPrimaryKey": false,
					"notNull": "true",
					"length": "null",
					"precision": "null",
					"generator": null,
					"isRelated": false,
					"fieldName": "imgUrl",
					"columnName": "IMG_URL"
				}, {
					"type": "integer",
					"fullyQualifiedType": "integer",
					"isPrimaryKey": true,
					"notNull": "true",
					"length": "null",
					"precision": "null",
					"generator": "identity",
					"isRelated": false,
					"fieldName": "id",
					"columnName": "ID"
				}, {
					"type": "string",
					"fullyQualifiedType": "string",
					"isPrimaryKey": false,
					"notNull": "true",
					"length": "null",
					"precision": "null",
					"generator": null,
					"isRelated": false,
					"fieldName": "category",
					"columnName": "CATEGORY"
				}, {
					"type": "double",
					"fullyQualifiedType": "double",
					"isPrimaryKey": false,
					"notNull": "true",
					"length": "null",
					"precision": "null",
					"generator": null,
					"isRelated": false,
					"fieldName": "price",
					"columnName": "PRICE"
				}, {
					"type": "string",
					"fullyQualifiedType": "string",
					"isPrimaryKey": false,
					"notNull": "true",
					"length": "null",
					"precision": "null",
					"generator": null,
					"isRelated": false,
					"fieldName": "description",
					"columnName": "DESCRIPTION"
				}, {
					"type": "string",
					"fullyQualifiedType": "string",
					"isPrimaryKey": false,
					"notNull": "true",
					"length": "null",
					"precision": "null",
					"generator": null,
					"isRelated": false,
					"fieldName": "name",
					"columnName": "NAME"
				}, {
					"type": "boolean",
					"fullyQualifiedType": "boolean",
					"isPrimaryKey": false,
					"notNull": "true",
					"length": "null",
					"precision": "null",
					"generator": null,
					"isRelated": false,
					"fieldName": "availability",
					"columnName": "AVAILABILITY"
				}],
				"isList": false,
				"fieldName": "product",
				"columnName": "product"
			}, {
				"type": "integer",
				"fullyQualifiedType": "integer",
				"isPrimaryKey": true,
				"notNull": "true",
				"length": "null",
				"precision": "null",
				"generator": "identity",
				"isRelated": false,
				"fieldName": "id",
				"columnName": "ID"
			}, {
				"type": "Productorder",
				"fullyQualifiedType": "com.eshopping.data.Productorder",
				"relatedTableColumnName": "ORDER_ID",
				"isRelated": true,
				"relatedTableName": "PRODUCTORDER",
				"columns": [{
					"type": "integer",
					"fullyQualifiedType": "integer",
					"isPrimaryKey": true,
					"notNull": "true",
					"length": "null",
					"precision": "null",
					"generator": "identity",
					"isRelated": false,
					"fieldName": "id",
					"columnName": "ID"
				}, {
					"type": "string",
					"fullyQualifiedType": "string",
					"isPrimaryKey": false,
					"notNull": "true",
					"length": "null",
					"precision": "null",
					"generator": null,
					"isRelated": false,
					"fieldName": "status",
					"columnName": "STATUS"
				}, {
					"type": "User",
					"fullyQualifiedType": "com.eshopping.data.User",
					"relatedTableColumnName": "USER_ID",
					"isRelated": true,
					"relatedTableName": "USER",
					"fieldName": "user",
					"columnName": "user"
				}],
				"isList": false,
				"fieldName": "productorder",
				"columnName": "productorder"
			}, {
				"type": "integer",
				"fullyQualifiedType": "integer",
				"isPrimaryKey": false,
				"notNull": "true",
				"length": "null",
				"precision": "null",
				"generator": null,
				"isRelated": false,
				"fieldName": "quantity",
				"columnName": "QUANTITY"
			}],
			"entityName": "Orderdetail",
			"fullyQualifiedName": "com.eshopping.data.Orderdetail"
		},
		"tableName": "ORDERDETAIL"
	},
	"cartDelete": {
		"name": "cartDelete",
		"type": "Itemorder",
		"isList": false,
		"owner": "Page",
		"dataSet": {
			"dataValue": ""
		},
		"dataBinding": {
			"id": ""
		},
		"saveInPhonegap": false,
		"operation": "delete",
		"liveSource": "eshopping",
		"firstRow": 0,
		"maxResults": 20,
		"designMaxResults": 10,
		"ignoreCase": false,
		"matchMode": "start",
		"autoUpdate": false,
		"startUpdate": false,
		"filterFields": {
		},
		"inputFields": {
		},
		"category": "wm.LiveVariable",
		"_id": "wm-wm.LiveVariable1399288986658",
		"package": "com.eshopping.data.Itemorder",
		"properties": ["product", "user"],
		"relatedTables": [{
			"type": "Product",
			"package": "com.eshopping.data.Product"
		}, {
			"type": "User",
			"package": "com.eshopping.data.User"
		}],
		"propertiesMap": {
			"columns": [{
				"type": "Product",
				"fullyQualifiedType": "com.eshopping.data.Product",
				"relatedTableColumnName": "PRODUCT_ID",
				"isRelated": true,
				"relatedTableName": "PRODUCT",
				"columns": [{
					"type": "string",
					"fullyQualifiedType": "string",
					"isPrimaryKey": false,
					"notNull": "true",
					"length": "null",
					"precision": "null",
					"generator": null,
					"isRelated": false,
					"fieldName": "imgUrl",
					"columnName": "IMG_URL"
				}, {
					"type": "integer",
					"fullyQualifiedType": "integer",
					"isPrimaryKey": true,
					"notNull": "true",
					"length": "null",
					"precision": "null",
					"generator": "identity",
					"isRelated": false,
					"fieldName": "id",
					"columnName": "ID"
				}, {
					"type": "string",
					"fullyQualifiedType": "string",
					"isPrimaryKey": false,
					"notNull": "true",
					"length": "null",
					"precision": "null",
					"generator": null,
					"isRelated": false,
					"fieldName": "category",
					"columnName": "CATEGORY"
				}, {
					"type": "double",
					"fullyQualifiedType": "double",
					"isPrimaryKey": false,
					"notNull": "true",
					"length": "null",
					"precision": "null",
					"generator": null,
					"isRelated": false,
					"fieldName": "price",
					"columnName": "PRICE"
				}, {
					"type": "string",
					"fullyQualifiedType": "string",
					"isPrimaryKey": false,
					"notNull": "true",
					"length": "null",
					"precision": "null",
					"generator": null,
					"isRelated": false,
					"fieldName": "description",
					"columnName": "DESCRIPTION"
				}, {
					"type": "string",
					"fullyQualifiedType": "string",
					"isPrimaryKey": false,
					"notNull": "true",
					"length": "null",
					"precision": "null",
					"generator": null,
					"isRelated": false,
					"fieldName": "name",
					"columnName": "NAME"
				}, {
					"type": "boolean",
					"fullyQualifiedType": "boolean",
					"isPrimaryKey": false,
					"notNull": "true",
					"length": "null",
					"precision": "null",
					"generator": null,
					"isRelated": false,
					"fieldName": "availability",
					"columnName": "AVAILABILITY"
				}],
				"isList": false,
				"fieldName": "product",
				"columnName": "product"
			}, {
				"type": "integer",
				"fullyQualifiedType": "integer",
				"isPrimaryKey": true,
				"notNull": "true",
				"length": "null",
				"precision": "null",
				"generator": "identity",
				"isRelated": false,
				"fieldName": "id",
				"columnName": "ID"
			}, {
				"type": "string",
				"fullyQualifiedType": "string",
				"isPrimaryKey": false,
				"notNull": "true",
				"length": "null",
				"precision": "null",
				"generator": null,
				"isRelated": false,
				"fieldName": "status",
				"columnName": "STATUS"
			}, {
				"type": "integer",
				"fullyQualifiedType": "integer",
				"isPrimaryKey": false,
				"notNull": "true",
				"length": "null",
				"precision": "null",
				"generator": null,
				"isRelated": false,
				"fieldName": "quantity",
				"columnName": "QUANTITY"
			}, {
				"type": "User",
				"fullyQualifiedType": "com.eshopping.data.User",
				"relatedTableColumnName": "USER_ID",
				"isRelated": true,
				"relatedTableName": "USER",
				"columns": [{
					"type": "integer",
					"fullyQualifiedType": "integer",
					"isPrimaryKey": false,
					"notNull": "true",
					"length": "null",
					"precision": "null",
					"generator": null,
					"isRelated": false,
					"fieldName": "phone",
					"columnName": "PHONE"
				}, {
					"type": "string",
					"fullyQualifiedType": "string",
					"isPrimaryKey": false,
					"notNull": "true",
					"length": "null",
					"precision": "null",
					"generator": null,
					"isRelated": false,
					"fieldName": "street",
					"columnName": "STREET"
				}, {
					"type": "string",
					"fullyQualifiedType": "string",
					"isPrimaryKey": false,
					"notNull": "true",
					"length": "null",
					"precision": "null",
					"generator": null,
					"isRelated": false,
					"fieldName": "password",
					"columnName": "PASSWORD"
				}, {
					"type": "string",
					"fullyQualifiedType": "string",
					"isPrimaryKey": false,
					"notNull": "true",
					"length": "null",
					"precision": "null",
					"generator": null,
					"isRelated": false,
					"fieldName": "productBought",
					"columnName": "PRODUCT_BOUGHT"
				}, {
					"type": "string",
					"fullyQualifiedType": "string",
					"isPrimaryKey": false,
					"notNull": "true",
					"length": "null",
					"precision": "null",
					"generator": null,
					"isRelated": false,
					"fieldName": "city",
					"columnName": "CITY"
				}, {
					"type": "string",
					"fullyQualifiedType": "string",
					"isPrimaryKey": false,
					"notNull": "true",
					"length": "null",
					"precision": "null",
					"generator": null,
					"isRelated": false,
					"fieldName": "country",
					"columnName": "COUNTRY"
				}, {
					"type": "integer",
					"fullyQualifiedType": "integer",
					"isPrimaryKey": true,
					"notNull": "true",
					"length": "null",
					"precision": "null",
					"generator": "identity",
					"isRelated": false,
					"fieldName": "id",
					"columnName": "ID"
				}, {
					"type": "string",
					"fullyQualifiedType": "string",
					"isPrimaryKey": false,
					"notNull": "true",
					"length": "null",
					"precision": "null",
					"generator": null,
					"isRelated": false,
					"fieldName": "landmark",
					"columnName": "LANDMARK"
				}, {
					"type": "string",
					"fullyQualifiedType": "string",
					"isPrimaryKey": false,
					"notNull": "true",
					"length": "null",
					"precision": "null",
					"generator": null,
					"isRelated": false,
					"fieldName": "email",
					"columnName": "EMAIL"
				}, {
					"type": "string",
					"fullyQualifiedType": "string",
					"isPrimaryKey": false,
					"notNull": "true",
					"length": "null",
					"precision": "null",
					"generator": null,
					"isRelated": false,
					"fieldName": "pin",
					"columnName": "PIN"
				}, {
					"type": "string",
					"fullyQualifiedType": "string",
					"isPrimaryKey": false,
					"notNull": "true",
					"length": "null",
					"precision": "null",
					"generator": null,
					"isRelated": false,
					"fieldName": "name",
					"columnName": "NAME"
				}],
				"isList": false,
				"fieldName": "user",
				"columnName": "user"
			}],
			"entityName": "Itemorder",
			"fullyQualifiedName": "com.eshopping.data.Itemorder"
		},
		"tableName": "ITEMORDER"
	}
}